<?xml version="1.0" encoding="UTF-8" standalone="no"?>
<svg width="26px" height="26px" viewBox="0 0 26 26" version="1.1" xmlns="http://www.w3.org/2000/svg" xmlns:xlink="http://www.w3.org/1999/xlink">
    <!-- Generator: Sketch 3.6.1 (26313) - http://www.bohemiancoding.com/sketch -->
    <title>animals-small</title>
    <desc>Created with Sketch.</desc>
    <defs></defs>
    <g id="Page-1" stroke="none" stroke-width="1" fill="none" fill-rule="evenodd">
        <g id="categories" transform="translate(-173.000000, -50.000000)">
            <g id="animals-small" transform="translate(173.000000, 50.000000)">
                <ellipse id="placeholder" fill="#9AC4A7" cx="13" cy="13" rx="13" ry="13"></ellipse>
                <g id="Group-3" transform="translate(7.000000, 11.000000)" fill="#FFFFFF">
                    <path d="M10.2505103,0 C9.55721248,0 8.96038655,0.4115 8.67746907,1 L3.32253093,1 C3.0401133,0.4115 2.44278752,0 1.74948973,0 C0.787270379,0 0,0.7875 0,1.75 C0,2.019 0.0664806098,2.2715 0.176448536,2.5 C0.0664806098,2.7285 0,2.981 0,3.25 C0,4.2125 0.787270379,5 1.74948973,5 C2.44278752,5 3.0401133,4.5885 3.32253093,4 L8.67746907,4 C8.96038655,4.5885 9.55721248,5 10.2505103,5 C11.2127296,5 12,4.2125 12,3.25 C12,2.981 11.9335194,2.7285 11.8235515,2.5 C11.9335194,2.2715 12,2.019 12,1.75 C12,0.7875 11.2127296,0 10.2505103,0 M10.2505103,1 C10.6638897,1 11.0002916,1.3365 11.0002916,1.75 C11.0002916,1.853 10.9742992,1.9595 10.9223143,2.067 C10.7908527,2.3405 10.7908527,2.6595 10.9223143,2.933 C10.9742992,3.0405 11.0002916,3.147 11.0002916,3.25 C11.0002916,3.6635 10.6638897,4 10.2505103,4 C9.96859249,4 9.70516933,3.83 9.57870621,3.567 C9.41225476,3.2205 9.06185696,3 8.67746907,3 L3.32253093,3 C2.93814304,3 2.5882451,3.2205 2.42179364,3.567 C2.29533053,3.83 2.03140751,4 1.74948973,4 C1.3361103,4 0.999708418,3.6635 0.999708418,3.25 C0.999708418,3.147 1.02570084,3.0405 1.07768568,2.9335 C1.20914733,2.6595 1.20914733,2.3405 1.07768568,2.0665 C1.02570084,1.9595 0.999708418,1.853 0.999708418,1.75 C0.999708418,1.3365 1.3361103,1 1.74948973,1 C2.03140751,1 2.29533053,1.17 2.42179364,1.433 C2.5882451,1.7795 2.93814304,2 3.32253093,2 L8.67746907,2 C9.06185696,2 9.41225476,1.7795 9.57870621,1.433 C9.70516933,1.17 9.96859249,1 10.2505103,1" id="Fill-1"></path>
                </g>
            </g>
        </g>
    </g>
</svg>