<?xml version="1.0" encoding="UTF-8" standalone="no"?>
<svg width="70px" height="70px" viewBox="0 0 70 70" version="1.1" xmlns="http://www.w3.org/2000/svg" xmlns:xlink="http://www.w3.org/1999/xlink">
    <!-- Generator: Sketch 3.6.1 (26313) - http://www.bohemiancoding.com/sketch -->
    <title>children</title>
    <desc>Created with Sketch.</desc>
    <defs></defs>
    <g id="Page-1" stroke="none" stroke-width="1" fill="none" fill-rule="evenodd">
        <g id="categories" transform="translate(-96.000000, -228.000000)">
            <g id="children" transform="translate(96.000000, 228.000000)">
                <circle id="project-photo" fill="#FDB05E" cx="35" cy="35" r="35"></circle>
                <path d="M39,47 L39,47 L27,47 C26.6,47 26.3,46.8 26.1,46.5 C25.9,46.2 25.9,45.8 26.1,45.5 L32.1,36.5 C32.5,35.9 33.4,35.9 33.8,36.5 L39.7,45.4 C39.9,45.6 40,45.8 40,46.1 C40,46.6 39.6,47 39,47 L39,47 Z M28.9,45 L37.2,45 L33,38.8 L28.9,45 L28.9,45 Z" id="Shape" fill="#FFFFFF"></path>
                <path d="M46,40 L38,40 C37.4,40 37,39.6 37,39 L37,31 C37,30.4 37.4,30 38,30 L46,30 C46.6,30 47,30.4 47,31 L47,39 C47,39.6 46.6,40 46,40 L46,40 Z M39,38 L45,38 L45,32 L39,32 L39,38 L39,38 Z" id="Shape" fill="#FFFFFF"></path>
                <path d="M29.5,36 C25.9,36 23,33.1 23,29.5 C23,25.9 25.9,23 29.5,23 C33.1,23 36,25.9 36,29.5 C36,33.1 33.1,36 29.5,36 L29.5,36 Z M29.5,25 C27,25 25,27 25,29.5 C25,32 27,34 29.5,34 C32,34 34,32 34,29.5 C34,27 32,25 29.5,25 L29.5,25 Z" id="Shape" fill="#FFFFFF"></path>
            </g>
        </g>
    </g>
</svg>