<?xml version="1.0" encoding="UTF-8" standalone="no"?>
<svg width="16px" height="24px" viewBox="0 0 16 24" version="1.1" xmlns="http://www.w3.org/2000/svg" xmlns:xlink="http://www.w3.org/1999/xlink">
    <!-- Generator: Sketch 3.6.1 (26313) - http://www.bohemiancoding.com/sketch -->
    <title>padlock</title>
    <desc>Created with Sketch.</desc>
    <defs></defs>
    <g id="feed" stroke="none" stroke-width="1" fill="none" fill-rule="evenodd">
        <g id="Large-Device-Desktops-feed-full" transform="translate(-969.000000, -401.000000)" fill="#4A4A4A">
            <g id="padlock" transform="translate(969.000000, 401.000000)">
                <g id="Layer_1">
                    <g id="Group">
                        <path d="M12,24 L4,24 C1.8,24 0,22.2 0,20 L0,13 C0,10.8 1.8,9 4,9 L12,9 C14.2,9 16,10.8 16,13 L16,20 C16,22.2 14.2,24 12,24 L12,24 Z M4,11 C2.9,11 2,11.9 2,13 L2,20 C2,21.1 2.9,22 4,22 L12,22 C13.1,22 14,21.1 14,20 L14,13 C14,11.9 13.1,11 12,11 L4,11 L4,11 Z" id="Shape"></path>
                        <path d="M13,11 L3,11 C2.4,11 2,10.6 2,10 L2,6 C2,2.7 4.7,0 8,0 C11.4,0 14,2.7 14,6 L14,10 C14,10.6 13.6,11 13,11 L13,11 Z M4,9 L12,9 L12,6 C12,3.8 10.2,2 8,2 C5.8,2 4,3.8 4,6 L4,9 L4,9 Z" id="Shape"></path>
                        <circle id="Oval" cx="8" cy="15" r="2"></circle>
                        <path d="M8,20 C7.4,20 7,19.6 7,19 L7,16 C7,15.4 7.4,15 8,15 C8.6,15 9,15.4 9,16 L9,19 C9,19.6 8.6,20 8,20 L8,20 Z" id="Shape"></path>
                    </g>
                </g>
            </g>
        </g>
    </g>
</svg>