<?xml version="1.0" encoding="UTF-8" standalone="no"?>
<svg width="48px" height="48px" viewBox="0 0 48 48" version="1.1" xmlns="http://www.w3.org/2000/svg" xmlns:xlink="http://www.w3.org/1999/xlink">
    <!-- Generator: Sketch 3.6.1 (26313) - http://www.bohemiancoding.com/sketch -->
    <title>close button</title>
    <desc>Created with Sketch.</desc>
    <defs></defs>
    <g id="add-opp" stroke="none" stroke-width="1" fill="none" fill-rule="evenodd">
        <g id="Small-Device-Tablets-help" transform="translate(-745.000000, -230.000000)">
            <g id="Group-3">
                <g id="close-button" transform="translate(745.000000, 230.000000)">
                    <circle id="Oval-10" fill="#EA5455" cx="24" cy="24" r="24"></circle>
                    <path d="M25.4,24 L31.7,17.7 C32.1,17.3 32.1,16.7 31.7,16.3 C31.3,15.9 30.7,15.9 30.3,16.3 L24,22.6 L17.7,16.3 C17.3,15.9 16.7,15.9 16.3,16.3 C15.9,16.7 15.9,17.3 16.3,17.7 L22.6,24 L16.3,30.3 C15.9,30.7 15.9,31.3 16.3,31.7 C16.7,32.1 17.3,32.1 17.7,31.7 L24,25.4 L30.3,31.7 C30.7,32.1 31.3,32.1 31.7,31.7 C32.1,31.3 32.1,30.7 31.7,30.3 L25.4,24 L25.4,24 Z" id="Cancel" fill="#FFFFFF"></path>
                </g>
            </g>
        </g>
    </g>
</svg>