<?xml version="1.0" encoding="UTF-8" standalone="no"?>
<svg width="40px" height="44px" viewBox="0 0 40 44" version="1.1" xmlns="http://www.w3.org/2000/svg" xmlns:xlink="http://www.w3.org/1999/xlink">
    <!-- Generator: Sketch 3.7 (28169) - http://www.bohemiancoding.com/sketch -->
    <title>Share</title>
    <desc>Created with Sketch.</desc>
    <defs></defs>
    <g id="Page-1" stroke="none" stroke-width="1" fill="none" fill-rule="evenodd">
        <g id="Small-Device-Tablets---org" transform="translate(-655.000000, -1726.000000)" fill="#303030">
            <path d="M687.5,1755.01703 C685.1,1755.01703 682.95,1756.16572 681.6,1757.91373 L669.45,1750.87174 C670.2,1749.02384 670.2,1746.97616 669.45,1745.12826 L681.6,1738.08627 C682.95,1739.83428 685.1,1740.98297 687.5,1740.98297 C691.65,1740.98297 695,1737.63678 695,1733.49149 C695,1729.3462 691.65,1726 687.5,1726 C683.35,1726 680,1729.3462 680,1733.49149 C680,1734.49035 680.2,1735.48922 680.55,1736.33825 L668.4,1743.43019 C667,1741.68218 664.9,1740.53348 662.5,1740.53348 C658.35,1740.53348 655,1743.87968 655,1748.02497 C655,1752.17026 658.35,1755.51646 662.5,1755.51646 C664.9,1755.51646 667.05,1754.36776 668.4,1752.61975 L680.55,1759.66175 C680.2,1760.51078 680,1761.50965 680,1762.50851 C680,1766.6538 683.35,1770 687.5,1770 C691.65,1770 695,1766.6538 695,1762.50851 C695,1758.36322 691.65,1755.01703 687.5,1755.01703 L687.5,1755.01703 Z M687.5,1728.04767 C690.55,1728.04767 693,1730.49489 693,1733.54143 C693,1736.58797 690.55,1739.03519 687.5,1739.03519 C684.45,1739.03519 682,1736.58797 682,1733.54143 C682,1730.49489 684.45,1728.04767 687.5,1728.04767 L687.5,1728.04767 Z M662.5,1753.51873 C659.45,1753.51873 657,1751.07151 657,1748.02497 C657,1744.97843 659.45,1742.53121 662.5,1742.53121 C665.55,1742.53121 668,1744.97843 668,1748.02497 C668,1751.07151 665.55,1753.51873 662.5,1753.51873 L662.5,1753.51873 Z M687.5,1768.00227 C684.45,1768.00227 682,1765.55505 682,1762.50851 C682,1759.46198 684.45,1757.01476 687.5,1757.01476 C690.55,1757.01476 693,1759.46198 693,1762.50851 C693,1765.55505 690.55,1768.00227 687.5,1768.00227 L687.5,1768.00227 Z" id="Share"></path>
        </g>
    </g>
</svg>