<?xml version="1.0" encoding="UTF-8" standalone="no"?>
<svg width="24px" height="24px" viewBox="0 0 24 24" version="1.1" xmlns="http://www.w3.org/2000/svg" xmlns:xlink="http://www.w3.org/1999/xlink">
    <!-- Generator: Sketch 3.6.1 (26313) - http://www.bohemiancoding.com/sketch -->
    <title>Group</title>
    <desc>Created with Sketch.</desc>
    <defs></defs>
    <g id="feed" stroke="none" stroke-width="1" fill="none" fill-rule="evenodd">
        <g id="Large-Device-Desktops-feed-full" transform="translate(-1101.000000, -401.000000)" fill="#4A4A4A">
            <g id="Group" transform="translate(1101.000000, 401.000000)">
                <path d="M4,16 C1.8,16 0,14.2 0,12 C0,9.8 1.8,8 4,8 C6.2,8 8,9.8 8,12 C8,14.2 6.2,16 4,16 L4,16 Z M4,10 C2.9,10 2,10.9 2,12 C2,13.1 2.9,14 4,14 C5.1,14 6,13.1 6,12 C6,10.9 5.1,10 4,10 L4,10 Z" id="Shape"></path>
                <path d="M20,8 C17.8,8 16,6.2 16,4 C16,1.8 17.8,0 20,0 C22.2,0 24,1.8 24,4 C24,6.2 22.2,8 20,8 L20,8 Z M20,2 C18.9,2 18,2.9 18,4 C18,5.1 18.9,6 20,6 C21.1,6 22,5.1 22,4 C22,2.9 21.1,2 20,2 L20,2 Z" id="Shape"></path>
                <path d="M20,24 C17.8,24 16,22.2 16,20 C16,17.8 17.8,16 20,16 C22.2,16 24,17.8 24,20 C24,22.2 22.2,24 20,24 L20,24 Z M20,18 C18.9,18 18,18.9 18,20 C18,21.1 18.9,22 20,22 C21.1,22 22,21.1 22,20 C22,18.9 21.1,18 20,18 L20,18 Z" id="Shape"></path>
                <rect id="Rectangle-path" transform="translate(12.044620, 16.021760) rotate(26.565051) translate(-12.044620, -16.021760) " x="6.09480088" y="15.0217904" width="11.8996382" height="1.9999392"></rect>
                <rect id="Rectangle-path" transform="translate(11.955380, 8.021960) rotate(63.434949) translate(-11.955380, -8.021960) " x="10.9554104" y="2.07214088" width="1.9999392" height="11.8996382"></rect>
            </g>
        </g>
    </g>
</svg>